C1 17946000 24161399 38330158
C2 31783923 32168741 46139736
C3 40628553 41937478 60556851
C4 17125787 19406261 48891688
C5 17595855 28271641 42644480
C6 7975438 8474229 37194875
C7 5350600 7173181 44469888
C8 5770578 6392675 38305421
C9 23126847 23450182 48401900
